<?xml version="1.0" encoding="utf-8"?>
<!-- Generator: Adobe Illustrator 17.0.0, SVG Export Plug-In . SVG Version: 6.00 Build 0)  -->
<!DOCTYPE svg PUBLIC "-//W3C//DTD SVG 1.1//EN" "http://www.w3.org/Graphics/SVG/1.1/DTD/svg11.dtd">
<svg version="1.1" id="Layer_1" xmlns="http://www.w3.org/2000/svg" xmlns:xlink="http://www.w3.org/1999/xlink" x="0px" y="0px"
	 width="45px" height="45px" viewBox="0 0 45 45" enable-background="new 0 0 45 45" xml:space="preserve">
<g>
	<path fill="#DEE2E6" d="M20.441,22.014c0,0,2.347-0.175,2.347-2.928c0-2.754-1.92-4.098-4.353-4.098h-8.007v15.388h8.007
		c0,0,4.886,0.154,4.886-4.543C23.321,25.833,23.534,22.014,20.441,22.014z M13.956,17.723h4.479c0,0,1.087,0,1.087,1.602
		c0,1.6-0.64,1.832-1.365,1.833h-4.201V17.723z M18.227,27.641h-4.272v-4.112h4.479c0,0,1.621-0.02,1.621,2.113
		C20.056,27.422,18.87,27.622,18.227,27.641z"/>
	<rect x="26.531" y="15.894" fill="#DEE2E6" width="6.35" height="1.895"/>
	<path fill="#DEE2E6" d="M29.84,18.903c-5.918,0-5.911,5.913-5.911,5.913s-0.406,5.881,5.913,5.881c0,0,5.265,0.302,5.265-4.091
		H32.4c0,0,0.089,1.655-2.467,1.655c0,0-2.709,0.181-2.709-2.677h7.974C35.197,25.582,36.069,18.903,29.84,18.903z M27.193,23.529
		c0,0,0.33-2.373,2.708-2.373s2.347,2.373,2.347,2.373H27.193z"/>
</g>
</svg>
