<?xml version="1.0" encoding="UTF-8"?>
<svg enable-background="new 0 0 960 640" version="1.1" viewBox="0 0 960 640" xml:space="preserve" xmlns="http://www.w3.org/2000/svg">
<style type="text/css">
	.st0{fill:#EBE8F1;}
	.st1{fill:#B39EB5;}
	.st2{fill:#CEC0CF;}
	.st3{fill:#282828;}
	.st4{fill:#FFFFFF;}
	.st5{fill:#977A99;}
	.st6{fill:#D7CBD7;}
	.st7{fill:#8B6C8E;}
	.st8{fill:#5ACFD6;}
	.st9{fill:#6FB5C9;}
	.st10{fill:#436368;}
	.st11{fill:#E7846F;}
	.st12{fill:#E9808F;}
	.st13{fill:#D1435E;}
	.st14{fill:#E75B71;}
	.st15{fill:#FC3153;}
	.st16{fill:#0E3057;}
	.st17{fill:#1792DD;}
	.st18{fill:#199BFA;}
	.st19{font-family:'HelveticaNeueLTCom-Blk';}
	.st20{font-size:34.3022px;}
	.st21{fill:#6E5472;}
	.st22{font-size:20.4515px;}
	.st23{font-size:17.9291px;}
	.st24{fill:#615C7F;}
	.st25{fill:#342E4C;}
	.st26{fill:#8B84A0;}
	.st27{fill:#EDC7AE;}
	.st28{fill:#A61D63;}
	.st29{fill:#CE9E5F;}
	.st30{fill:#F7E5DA;}
	.st31{fill:#AC3131;}
	.st32{fill:#E9E9E9;}
	.st33{fill:#C8C8C8;}
	.st34{opacity:0.3;fill:#FFFFFF;}
	.st35{fill:url(#a);}
</style>
		<path class="st0" d="m678.9 140.7c14.2 22 28 43.9 42 66.1 17.3 27.4 41.6 50.3 70 65.9 36.6 20 82.6 30.6 103.3 66.8 9.2 16.1 11.8 35.3 10.2 53.8-3 33.9-21.1 66.9-50.2 84.5-31.6 19.1-71.1 18.3-107.8 14.1-57-6.5-113.2-19.7-167-39.4-53.8-19.6-109.3-46.1-165.8-36.2-50.2 8.8-90.5 44.8-135.7 68.2-48.4 25.1-105.9 36-158.3 20.9-52.4-15.2-97.6-59.4-105.4-113.4-3.4-23.2 0-47 6.4-69.6 29.5-104.8 127.6-186.6 236-196.8 54-5 108.2 6.2 160.6 20.1 21.1 5.6 42.4 11.7 64.2 12.1 47.1 0.9 90.2-24.3 130.4-48.6 0 0.1 32.4-22.2 67.1 31.5z"/>
		<polygon class="st1" points="260 226.6 253.7 226.6 250 192.8 263.7 192.8"/>
		<polygon class="st1" points="34.7 226.6 28.5 226.6 24.8 192.8 38.5 192.8"/>
		<rect class="st2" x="4.2" y="178.6" width="287.8" height="18.7"/>
			<path d="m40.3 177.7h53.4c2.3 0 4.2-1.9 4.2-4.2v-7.3c0-2.3-1.9-4.2-4.2-4.2h-53.4c-1.2 0-2.2 1-2.2 2.2v11.4c0 1.1 1 2.1 2.2 2.1z"/>
			<path d="m40.3 175.2h53.4c2.3 0 4.2-1.9 4.2-4.2v-7.3c0-2.3-1.9-4.2-4.2-4.2h-53.4c-1.2 0-2.2 1-2.2 2.2v11.3c0 1.2 1 2.2 2.2 2.2z"/>
				<path class="st3" d="m59.5 90.4 9.2-6.7c1.8-1.3 2.2-3.9 0.9-5.7l-11.8-16.3c-1.3-1.8-3.9-2.2-5.7-0.9l-9.2 6.7c-1.8 1.3-2.2 3.9-0.9 5.7l11.9 16.4c1.2 1.8 3.8 2.2 5.6 0.8z"/>
				<path d="m47.5 96.2c-6.1-8.4-4.2-20.1 4.2-26.2s20.1-4.2 26.2 4.2"/>
				<path class="st4" d="m48.9 98.8 31.2-22.6c0.6-0.5 0.8-1.4 0.3-2s-1.4-0.8-2-0.3l-31.2 22.6c-0.6 0.5-0.8 1.4-0.3 2 0.4 0.6 1.3 0.8 2 0.3z"/>
				<path class="st3" d="m7.2 93.3 48.7-35.3c0.8-0.6 0.9-1.6 0.4-2.4-0.6-0.8-1.6-0.9-2.4-0.4l-48.7 35.3c-0.8 0.6-0.9 1.6-0.4 2.4s1.6 0.9 2.4 0.4z"/>
				<path class="st3" d="m72.7 167.6-68.4-84.9c-0.6-0.8-0.4-1.8 0.3-2.4 0.8-0.6 1.8-0.4 2.4 0.3l68.3 84.9c0.6 0.8 0.4 1.8-0.3 2.4s-1.8 0.5-2.3-0.3z"/>
				<path class="st3" d="m78.8 163.2-68.3-85c-0.6-0.8-0.4-1.8 0.3-2.4 0.8-0.6 1.8-0.4 2.4 0.3l68.3 84.9c0.6 0.8 0.4 1.8-0.3 2.4-0.7 0.7-1.8 0.5-2.4-0.2z"/>
				<rect transform="matrix(.8096 -.587 .587 .8096 -30.349 37.39)" x="41.4" y="62.9" width="2.1" height="5.1"/>
				<rect transform="matrix(.8096 -.587 .587 .8096 -25.237 41.117)" x="49.7" y="56.9" width="2.1" height="5.1"/>
			<rect transform="matrix(.8729 -.4878 .4878 .8729 -68.842 47.472)" x="40.4" y="154.9" width="32.6" height="2.1"/>
			<path class="st4" d="m291.4 110.5h-60.3c-1.1 0-2-0.9-2-2v-18.9c0-1.1 0.9-2 2-2h60.3c1.1 0 2 0.9 2 2v18.9c0 1.1-0.9 2-2 2z"/>
			<circle class="st5" cx="242.7" cy="99.1" r="5.5"/>
			<path class="st6" d="m270.7 98h-15.9c-0.6 0-1.2-0.5-1.2-1.2v-2c0-0.6 0.5-1.2 1.2-1.2h15.9c0.6 0 1.2 0.5 1.2 1.2v2c0 0.6-0.5 1.2-1.2 1.2z"/>
			<path class="st6" d="m264.1 104.5h-8.8c-0.6 0-1.2-0.5-1.2-1.2v-2c0-0.6 0.5-1.2 1.2-1.2h8.8c0.6 0 1.2 0.5 1.2 1.2v2c0 0.7-0.6 1.2-1.2 1.2z"/>
			<path class="st6" d="m280.8 98h-5.1c-0.6 0-1.2-0.5-1.2-1.2v-2c0-0.6 0.5-1.2 1.2-1.2h5.1c0.6 0 1.2 0.5 1.2 1.2v2c0 0.6-0.5 1.2-1.2 1.2z"/>
			<path class="st4" d="m278.1 133.2h-60.3c-1.1 0-2-0.9-2-2v-18.9c0-1.1 0.9-2 2-2h60.3c1.1 0 2 0.9 2 2v18.9c0 1.1-0.9 2-2 2z"/>
			<circle class="st6" cx="229.4" cy="121.8" r="5.5"/>
			<path class="st6" d="m257.4 120.7h-15.9c-0.6 0-1.2-0.5-1.2-1.2v-2c0-0.6 0.5-1.2 1.2-1.2h15.9c0.6 0 1.2 0.5 1.2 1.2v2c0 0.6-0.5 1.2-1.2 1.2z"/>
			<path class="st6" d="m250.8 127.2h-8.8c-0.6 0-1.2-0.5-1.2-1.2v-2c0-0.6 0.5-1.2 1.2-1.2h8.8c0.6 0 1.2 0.5 1.2 1.2v2c0 0.7-0.6 1.2-1.2 1.2z"/>
			<path class="st6" d="m267.5 120.7h-5.1c-0.6 0-1.2-0.5-1.2-1.2v-2c0-0.6 0.5-1.2 1.2-1.2h5.1c0.6 0 1.2 0.5 1.2 1.2v2c0 0.6-0.5 1.2-1.2 1.2z"/>
			<path class="st4" d="m292.5 155.9h-60.3c-1.1 0-2-0.9-2-2v-18.9c0-1.1 0.9-2 2-2h60.3c1.1 0 2 0.9 2 2v18.9c0 1.1-0.9 2-2 2z"/>
			<circle class="st7" cx="243.8" cy="144.5" r="5.5"/>
			<path class="st6" d="m271.7 143.4h-15.9c-0.6 0-1.2-0.5-1.2-1.2v-2c0-0.6 0.5-1.2 1.2-1.2h15.9c0.6 0 1.2 0.5 1.2 1.2v2c0 0.6-0.5 1.2-1.2 1.2z"/>
			<path class="st6" d="m265.1 149.9h-8.8c-0.6 0-1.2-0.5-1.2-1.2v-2c0-0.6 0.5-1.2 1.2-1.2h8.8c0.6 0 1.2 0.5 1.2 1.2v2c0 0.7-0.5 1.2-1.2 1.2z"/>
			<path class="st6" d="m281.8 143.4h-5.1c-0.6 0-1.2-0.5-1.2-1.2v-2c0-0.6 0.5-1.2 1.2-1.2h5.1c0.6 0 1.2 0.5 1.2 1.2v2c0 0.6-0.5 1.2-1.2 1.2z"/>
			<path class="st4" d="m278.1 178.6h-60.3c-1.1 0-2-0.9-2-2v-18.9c0-1.1 0.9-2 2-2h60.3c1.1 0 2 0.9 2 2v18.9c0 1.1-0.9 2-2 2z"/>
			<circle class="st6" cx="229.4" cy="167.2" r="5.5"/>
			<path class="st6" d="m257.4 166.1h-15.9c-0.6 0-1.2-0.5-1.2-1.2v-2c0-0.6 0.5-1.2 1.2-1.2h15.9c0.6 0 1.2 0.5 1.2 1.2v2c0 0.6-0.5 1.2-1.2 1.2z"/>
			<path class="st6" d="m250.8 172.6h-8.8c-0.6 0-1.2-0.5-1.2-1.2v-2c0-0.6 0.5-1.2 1.2-1.2h8.8c0.6 0 1.2 0.5 1.2 1.2v2c0 0.7-0.6 1.2-1.2 1.2z"/>
			<path class="st6" d="m267.5 166.1h-5.1c-0.6 0-1.2-0.5-1.2-1.2v-2c0-0.6 0.5-1.2 1.2-1.2h5.1c0.6 0 1.2 0.5 1.2 1.2v2c0 0.6-0.5 1.2-1.2 1.2z"/>
			<path class="st4" d="m200 179.2h-74.4c-1.1 0-2-0.9-2-2v-90.6c0-1.1 0.9-2 2-2h74.4c1.1 0 2 0.9 2 2v90.6c0 1.1-0.9 2-2 2z"/>
			<path class="st6" d="m192.5 160.3h-59.4c-1.1 0-2-0.9-2-2v-52.7c0-1.1 0.9-2 2-2h59.4c1.1 0 2 0.9 2 2v52.7c0 1.1-0.9 2-2 2z"/>
			<path class="st6" d="m192.5 97.2h-15.9c-0.6 0-1.2-0.5-1.2-1.2v-2c0-0.6 0.5-1.2 1.2-1.2h15.9c0.6 0 1.2 0.5 1.2 1.2v2c0 0.6-0.5 1.2-1.2 1.2z"/>
			<path class="st4" d="m163.6 153.7h-25.9c-0.6 0-1.2-0.5-1.2-1.2v-2c0-0.6 0.5-1.2 1.2-1.2h25.9c0.6 0 1.2 0.5 1.2 1.2v2c0 0.7-0.5 1.2-1.2 1.2z"/>
			<circle class="st5" cx="135.4" cy="95.1" r="4.2"/>
			<path class="st6" d="m149.2 171.1h-15.9c-0.6 0-1.2-0.5-1.2-1.2v-2c0-0.6 0.5-1.2 1.2-1.2h15.9c0.6 0 1.2 0.5 1.2 1.2v2c0 0.6-0.5 1.2-1.2 1.2z"/>
			<path class="st6" d="m159.4 171.1h-5.1c-0.6 0-1.2-0.5-1.2-1.2v-2c0-0.6 0.5-1.2 1.2-1.2h5.1c0.6 0 1.2 0.5 1.2 1.2v2c-0.1 0.6-0.6 1.2-1.2 1.2z"/>
			<path class="st6" d="m193.4 171.1h-5.1c-0.6 0-1.2-0.5-1.2-1.2v-2c0-0.6 0.5-1.2 1.2-1.2h5.1c0.6 0 1.2 0.5 1.2 1.2v2c-0.1 0.6-0.6 1.2-1.2 1.2z"/>
		<polygon class="st1" points="36.3 445.3 42.5 445.3 46.3 411.6 32.6 411.6"/>
		<polygon class="st1" points="261.5 445.3 267.8 445.3 271.5 411.6 257.8 411.6"/>
			<rect class="st2" transform="matrix(-1 -4.4867e-11 4.4867e-11 -1 296.26 813.28)" x="4.2" y="397.3" width="287.8" height="18.7"/>
					<path class="st8" d="m60.1 314.4c1.3 3.2 3.1 3.4 5.8 5.5s6.3 3.2 9.7 2.6c1.5-0.3 3.8-1 4.7-2.3 4.1-3.6 5.7-9.6 4.4-14.9-0.9-3.4-2.9-6.8-1.8-10.2 1.7-5.3 10.1-6.4 11-11.9 0.7-4.5-4.6-8.6-3.2-13 1.2-4 7.1-4.8 9-8.5 1.4-2.7 0.3-6.1-1.3-8.7s-3.7-5.1-4.3-8.1c-0.5-2.6 0.2-5.3 0.7-7.9 1-5.2 1.2-10.6 0.6-16-0.2-1.4-0.5-3-2.4-3.3-0.7-0.1-1.4 0-2.1 0.2-7.5 2.3-11.4 10.4-14.5 17.5-2.8 1.3-5.8 1-8.9 1.2s-6.5 1.3-7.8 4c-1.9 3.8 1 8.9-1.6 12.3-2.7 3.7-9.1 1.8-12.4 5.1-3.9 3.9 0.1 11.4-3.2 15.9-2.1 2.8-6.1 3.2-9.3 4.5-5 2-8.1 7.8-8.7 13.2v0.5c0.4 4.5 0.3 8.6 2.6 12.5 1 1.7 2.4 3.3 4.3 4 1.4 0.5 2.9 0.4 4.3 0.3 2-0.1 3.9-0.4 5.9-0.6 3.6-0.5 7.2-1.2 10.7-0.6s7 3.2 7.8 6.7z"/>
					<path class="st9" d="m60.9 312.2c3.1 2.7 5 1.9 9 2.7 4 0.7 8.4 0 11.6-2.5 1.4-1.1 3.5-3.1 3.7-4.9 2.4-6 0.9-13.1-3.3-17.9-2.7-3.1-6.7-5.6-7.4-9.7-1-6.5 7.2-12.2 5.2-18.4-1.7-5.1-9.4-6.6-10.3-11.9-0.8-4.9 4.9-8.8 4.9-13.8 0-3.6-3-6.5-6.1-8.4s-6.6-3.4-8.8-6.2c-1.9-2.5-2.6-5.7-3.5-8.7-1.7-6.1-4.4-11.8-7.9-17.1-0.9-1.4-2.1-2.9-4.3-2.2-0.8 0.2-1.5 0.7-2.1 1.3-6.7 6.5-6.4 17-5.9 26.2-2.2 2.9-5.6 4.1-8.7 6s-6.1 4.8-6.1 8.4c0 5 5.8 8.9 4.9 13.8-0.9 5.3-8.6 6.8-10.3 11.9-2.1 6.2 6.2 11.9 5.2 18.4-0.6 4.1-4.6 6.6-7.4 9.7-4.2 4.8-4.3 12.6-2.1 18.5 0.1 0.2 0.1 0.3 0.2 0.5 2.8 4.5 4.9 8.9 9.4 11.7 2 1.3 4.3 2.2 6.6 1.9 1.7-0.2 3.2-1.1 4.7-2 2-1.2 4-2.5 5.9-3.8 3.5-2.4 6.9-5.1 11-6.3 4.3-1.4 9.1-0.4 11.9 2.8z"/>
						<path class="st8" d="m32.3 319.4c-1.5 0.9-3 1.7-4.7 2-2.3 0.3-4.6-0.6-6.6-1.9-4.5-2.9-6.6-7.2-9.4-11.7-0.1-0.2-0.2-0.3-0.2-0.5-2.3-5.9-2.1-13.7 2.1-18.5 2.7-3.1 6.7-5.6 7.4-9.7 1-6.5-7.2-12.2-5.2-18.4 1.7-5.1 9.4-6.6 10.3-11.9 0.8-4.9-4.9-8.8-4.9-13.8 0-3.6 3-6.5 6.1-8.4s6.4-3.1 8.7-6c-0.5-9.2-0.7-19.7 5.9-26.2 0.6-0.6 1.3-1.1 2.1-1.3 0.2-0.1 0.4-0.1 0.6-0.1 2.1 5.5 4.1 11.1 4.5 16.9 0.4 6.4-1.3 13.3-6 17.7-1.3 1.2-2.9 2.2-3.8 3.7-1.1 1.8-1.4 3.9-1.3 6 0.3 6.3 3.2 12.1 5 18.1 1.9 6 2.7 13-0.8 18.2-1.4 2.1-3.4 3.7-4.8 5.8-4 6.1-2 14.5 2.1 20.5 2.3 3.4 5.3 6.7 7.3 10.2-3 1.4-5.7 3.4-8.4 5.3-2 1.5-4 2.7-6 4z"/>
				<path class="st10" d="m46.1 230.4c2.1 4.8 2.5 10.6 2.8 16.2 1.1 19.5 1.1 39 1.9 58.5l0.2 0.5s1.3 11.5 2.7 19.2c0.4 1.6 0.7 3.2 1 4.8v0.2c0.8 3.7 1.5 7.3 2.1 11 0.4 2.1 0.6 4.4-0.7 6-3.2-9.1-5.1-18.6-5.7-28.2-3.1-22.2-5.1-44.7-6-67.3-0.2-7.1-0.3-14.5 1.7-20.9z"/>
			<path class="st11" d="m77.7 334.5s-7-6.3-14.9-6.3-18.8-2.3-18.8-2.3-11.7-1.6-15.7 8.6"/>
					<path class="st12" d="m72 397.2h-38.7c-3.2 0-5.8-2.5-6-5.7l-1.9-36.6h54.5l-1.9 36.6c-0.2 3.2-2.8 5.7-6 5.7z"/>
					<polygon class="st13" points="80.7 340 79.9 354.9 25.4 354.9 24.6 340"/>
				<path class="st14" d="m21.4 347.9h63.3c2.2 0 4-1.8 4-4v-6.9c0-2.2-1.8-4-4-4h-63.3c-2.2 0-4 1.8-4 4v6.9c0 2.2 1.8 4 4 4z"/>
					<path class="st13" d="m58.3 376.9c1 1.7 0.5 3.8-0.1 5.6-0.4 1.3-1.2 2.4-2.6 3.2-3.7 2-7.9-0.2-10.3-2.7-1.6-1.7-2.8-3.7-2.8-5.9 0-1.7 1.8-4 3.6-4.9 1.7-0.9 3.6-1.7 6.1-0.2-0.1 0 4.4 2 6.1 4.9z"/>
		<path class="st15" d="m250 397.3h22c1.1 0 2-0.9 2-2v-94c0-1.1-0.9-2-2-2h-22c-1.1 0-2 0.9-2 2v94c0 1.1 0.9 2 2 2z"/>
		<path class="st1" d="m195.1 397.3h30.3c1.1 0 2-0.9 2-2v-100.3c0-1.1-0.9-2-2-2h-30.3c-1.1 0-2 0.9-2 2v100.3c0 1.1 0.9 2 2 2z"/>
		<path class="st16" d="m172 397.3h19.1c1.1 0 2-0.9 2-2v-90c0-1.1-0.9-2-2-2h-19.1c-1.1 0-2 0.9-2 2v90c0 1.1 0.9 2 2 2z"/>
		<path class="st13" d="m149 397.3h19c1.1 0 2-0.9 2-2v-78.5c0-1.1-0.9-2-2-2h-19c-1.1 0-2 0.9-2 2v78.5c0 1.1 0.9 2 2 2z"/>
			<rect class="st1" transform="matrix(-.9504 -.3111 .3111 -.9504 138.54 734.22)" x="121.4" y="314.8" width="12.8" height="82.5"/>
		<path class="st2" d="m206 379.4h8.4c2.7 0 4.9-2.2 4.9-4.9v-33.9c0-2.7-2.2-4.9-4.9-4.9h-8.4c-2.7 0-4.9 2.2-4.9 4.9v33.9c0 2.7 2.2 4.9 4.9 4.9z"/>
		<path class="st12" d="m258.8 383.3h3.7c1.2 0 2.1-1 2.1-2.1v-64.2c0-1.2-1-2.1-2.1-2.1h-3.7c-1.2 0-2.1 1-2.1 2.1v64.2c-0.1 1.1 0.9 2.1 2.1 2.1z"/>
			<path class="st17" d="m231.5 317.9h12.3c2.1 0 3.7 1.7 3.7 3.7v71.9c0 2.1-1.7 3.7-3.7 3.7h-12.3c-2.1 0-3.7-1.7-3.7-3.7v-31.4h19.7v-31.9h-19.7v-8.6c0-2 1.7-3.7 3.7-3.7z"/>
			<rect class="st18" x="227.8" y="330.3" width="19.7" height="31.9"/>
			<path class="st0" d="m773.3 117.6c8-17.4 22.7-32.3 41.4-36.3 24.5-5.2 49.4 6.4 70.5 19.9 29.5 18.9 57.1 43.8 69 76.7 3.3 9 5.3 19 2.5 28.2-5.9 20.1-30.7 27.5-51.6 27.3-47.4-0.5-92.7-24.3-124.4-59.7 0 0-22.7-22.7-7.4-56.1z"/>
		<polygon class="st1" points="921.7 304.2 915.5 304.2 911.7 270.4 925.4 270.4"/>
		<polygon class="st1" points="696.5 304.2 690.2 304.2 686.5 270.4 700.2 270.4"/>
		<rect class="st2" x="665.9" y="256.2" width="287.8" height="18.7"/>
		<path class="st4" d="m754.9 256.8h-74.4c-1.1 0-2-0.9-2-2v-90.6c0-1.1 0.9-2 2-2h74.4c1.1 0 2 0.9 2 2v90.6c0 1.1-0.9 2-2 2z"/>
		<path class="st4" d="m922.4 256.2h-141.2c-1.6 0-3-1.4-3-3v-71.7c0-1.6 1.4-3 3-3h141.2c1.7 0 3 1.4 3 3v71.7c0 1.6-1.3 3-3 3z"/>
		<path class="st2" d="m927.3 223h-150.9c-1 0-1.9-0.8-1.9-1.9v-7.6c0-1 0.8-1.9 1.9-1.9h150.9c1 0 1.9 0.8 1.9 1.9v7.6c-0.1 1-0.9 1.9-1.9 1.9z"/>
		<text class="st19 st20" transform="translate(697.56 219.55)">Aa</text>
		<text class="st21 st19 st22" transform="translate(783.13 211.65)">1234567890</text>
		<text class="st21 st19 st22" transform="translate(783.13 256.16)">1234567890</text>
		<text class="st19 st20" transform="translate(750.21 242.6)">Aa</text>
		<path d="m750.8 256.8h45.1c1.1 0 2-0.9 2-2v-45.1c0-1.1-0.9-2-2-2h-45.1c-1.1 0-2 0.9-2 2v45.1c0 1.1 0.9 2 2 2z"/>
		<text class="st4 st19 st23" transform="translate(760.57 237.25)">H2</text>
				<rect class="st24" x="440.4" y="418.7" width="14.4" height="161.7"/>
				<path class="st25" d="m393.3 580.4h14.4v-4.4c0-2.1 1.8-3.9 3.9-3.9h72.1c2.1 0 3.9 1.8 3.9 3.9v4.4h14.4v-4.4c0-10-8.2-18.2-18.2-18.2h-72.1c-9.5 0-17.3 7.3-18.1 16.6h-0.1v6z"/>
			<path class="st26" d="m395.3 394.2h92.1c12.5 0 22.6-10.1 22.6-22.6v-129.1c0-12.5-10.1-22.6-22.6-22.6h-77.4c-12.5 0-22.6 10.1-22.6 22.6v143.8c0 4.3 3.6 7.9 7.9 7.9z"/>
			<path class="st26" d="m388.2 424.6h106.5c8.5 0 15.4-6.9 15.4-15.4v-173.9c0-8.5-6.9-15.4-15.4-15.4h-91.8c-8.5 0-15.4 6.9-15.4 15.4v188.6c-0.1 0.4 0.3 0.7 0.7 0.7z"/>
			<path class="st16" d="m471.9 548.1c-0.6 2.5-0.8 5.3 0.3 7.6s4.1 3.9 6.4 2.7c1.4-0.7 2.2-2.3 2.9-3.7 13.4-28.2 25.7-57 36.7-86.3l7.2-19.5-21.9-47.5-16.2 5.5-6.2 9.8 0.2 2.9c5.8 43-2.1 86-9.5 128.8"/>
					<path class="st27" d="m450.3 252.3c2.7 1.9 6 3 9.2 3.6 3.5 0.6 7.1 0.8 10.5-0.2 2.5-0.7 5.2-2 7.4-0.7l8.7 2.6 8-7.8c-0.5-0.8-0.9-1.5-1.3-2.4 0 0-31.1-5.8-31.7-6s-6.5-2.9-6.5-2.9c-2.3 2.4-6.5 5.8-9.3 7.4 0.9 2.5 2.8 4.8 5 6.4z"/>
					<path class="st15" d="m515.7 265.2c-7.3-5.1-16.9-8.2-21.5-15.5l-7.5 4.5-9.3 0.7c-2.2-1.3-5 0-7.4 0.7-3.4 1-7 0.8-10.5 0.2-3.3-0.6-6.5-1.7-9.2-3.6-2.2-1.6-4.1-3.9-4.9-6.5-11.4 6.9-26.1 9.1-37.8 16.3-12.8 7.9-22.1 23.8-26.5 38.1l9.9 50 104 13.6 34.6-57.2c4.7-14.8-1.2-32.3-13.9-41.3z"/>
			<path class="st25" d="m501.9 433.9h-114.3c-0.1 0-0.2-0.1-0.2-0.2v-17.8c0-0.1 0.1-0.2 0.2-0.2h123.6c0.1 0 0.2 0.1 0.2 0.2v8.5c0 5.2-4.3 9.5-9.5 9.5z"/>
			<path class="st18" d="m506.5 421.5c4 18.5 7 29.3 15.3 41.8 3.7 5.6 8.1 10.8 12.4 16 7.6 9.2 15.3 18.4 23.9 26.7 8.8 8.4 18.5 15.7 28.9 21.9 6.4 3.8 13.4 7.4 16.9 14l2.8 4.7 4 5.3 4.7-0.9v-6.2c-10.5-37.6-31.2-73.4-49.3-108.1-9-17.2-18.9-34.1-24.9-52.5h-115.5l-28.8 4.5-1.2 5.3c3 9.9 9.8 18.7 18.8 23.9 12.5 7.3 27.9 7.7 42.2 5.7s28.3-6.2 42.8-7.2c1.8-0.1 3.6-0.2 5.2 0.7 1.5 0.8 1.4 2.7 1.8 4.4z"/>
			<path class="st28" d="m619.1 536.2c5 0.9 8-2.1 13-2.6 4.4-0.5 9.2-0.9 12.8 1.8 0.6 0.4 1.1 1 1.4 1.6 0.6 1.6-0.7 3.3-2 4.5-5.1 4.7-11.2 8.2-17.9 10-0.8 0.2-1.7 0.5-2.4 1-0.6 0.5-0.9 1.1-1.4 1.7-1.2 1.8-2.9 3.3-4.9 4.2-0.5 0.3-1.1 0.5-1.6 0.4-0.6-0.1-1.1-0.6-1.5-1.1-2.5-2.8-4.8-5.9-6.9-9 3.3-2.2 5.4-6 5.6-9.9 0-0.5 0-1 0.2-1.5 0.4-0.8 1.4-1.2 2.3-1.2 1 0.1 2.2-0.1 3.3 0.1z"/>
			<path class="st28" d="m486.5 557.9c1 5 4.9 6.6 7.3 11.1 2.1 3.9 4.2 8.3 3.1 12.5-0.2 0.7-0.5 1.4-1 1.9-1.3 1.2-3.3 0.6-4.9-0.2-6.2-3-11.7-7.4-15.9-12.9-0.5-0.7-1.1-1.4-1.8-1.8-0.6-0.4-1.4-0.5-2.1-0.6-2.1-0.5-4.1-1.5-5.7-3-0.4-0.4-0.8-0.8-1-1.4-0.1-0.6 0.2-1.2 0.5-1.8 1.7-3.4 3.7-6.7 5.8-9.8 3.2 2.3 7.6 2.8 11.3 1.5 0.5-0.2 1-0.4 1.5-0.4 0.9 0 1.7 0.8 2 1.7s0.6 2.1 0.9 3.2z"/>
			<path class="st27" d="m508.3 193.5s-8.8-4.6-9.4-5-10.9-2.2-10.9-2.2l-16.6 1.6-7 7.7h3.2l-1.9 3.4c-1.8 3.2-3.7 6.5-4.7 10-2.2 7.6-0.3 16.3 4.9 22.3 0.2 0.3 0.5 0.5 0.8 0.6 0.4 0.1 0.9 0 1.3-0.2 5.5-2.2 12-1.8 17.3 0.9 4.4 2.3 15.6-3.8 20.4-2.1 2.3-5.1 4.2-10.4 5.2-16 1.1-7 0.7-14.5-2.6-21z"/>
			<path class="st29" d="m451.1 226.8c-1.3-13.6 0.7-27.8 10.6-37.3 4.8-4.6 10.9-8.3 17.5-9.3 0 0 8.2-1.2 13.7 0.1 2.9 0.7 5.8 1.5 8.6 2.6s5.4 2.7 7.4 5l-0.2-0.2c2 1.5 1.5 2.6 1.5 2.6-0.6 1.6-2.1 2.6-3.6 3.3-6.2 3.2-13.4 3.8-20.4 3.9s-14.1-0.4-20.9 0.9l-14.2 28.4z"/>
			<path class="st27" d="m381.9 297.9c-7.7 22.1-10.6 46-8.7 69.3 0.1 1.2 0.2 2.5 0.9 3.4 0.9 1.3 2.6 2 4.3 2.1 18.5 1.6 33 0.9 49.6 0.7l22.2 0.2-6.2-18.4c-8.9-7.7-21.5-9-33.3-10 1.1-11.2 2.1-22.5 3.2-33.7-3.4-4.9-9-8.1-14.3-10.7s-10.9-4.3-16.5-6.3"/>
			<path class="st29" d="m485.2 232.7c-5.3-2.7-11.7-3.1-17.3-0.9-0.4 0.2-0.8 0.3-1.3 0.2-0.3-0.1-0.6-0.4-0.8-0.6-5.2-6-7.1-14.7-4.9-22.3 1-3.5 2.9-6.8 4.7-10l1.9-3.4h-3.2l-10.6 11.7-2.7 15.8c-0.1 0.6-0.1 1.3-0.1 1.9 0 6.4 2.8 15 2.8 15 1.7 3.7 4.7 6.6 8.1 8.9 1.7 1.1 3.5 2.2 5.3 3 5.3 2.5 11 4.1 16.8 4.8 8 0.9 14.7-11.9 19.5-21.7 0.7-1.4 1.4-2.9 2-4.4-4.6-1.8-15.8 4.3-20.2 2z"/>
			<path class="st27" d="m454.3 219.9c-3.7-0.1-6.7-3.1-6.7-6.9 0.1-3.7 3.1-6.7 6.9-6.7"/>
			<path class="st30" d="m490.1 219.9-1.9 14.6h7.4c1.3 0 2.1-1.4 1.4-2.5l-6.9-12.1z"/>
				<polygon class="st2" points="681.3 581 636.4 381.6 657 381.6 694.4 581"/>
				<polyline class="st2" points="359.2 381.6 321.8 581 334.9 581 379.7 381.6"/>
				<rect class="st4" x="317.3" y="371.3" width="376.6" height="20.6"/>
				<path class="st2" d="m558.8 371.3h-111.7c-2.9 0-5.3-2.4-5.3-5.3v-65.5c0-2.9 2.4-5.3 5.3-5.3h111.6c2.9 0 5.3 2.4 5.3 5.3v65.5c0 3-2.3 5.3-5.2 5.3z"/>
						<polygon class="st31" points="645.9 316.8 641.6 371.3 615.5 371.3 609.9 316.8"/>
						<path class="st32" d="m607.1 317.9c0 2.3 1.9 4.2 4.2 4.2h33.6c2.3 0 4.2-1.9 4.2-4.2v-0.1c0-2.3-1.9-4.2-4.2-4.2h-33.6c-2.3 0-4.2 1.9-4.2 4.3z"/>
						<path class="st33" d="m612.6 310.9c0 1.7 1.4 3.1 3.1 3.1h24.8c1.7 0 3.1-1.4 3.1-3.1v-0.1c0-1.7-1.4-3.1-3.1-3.1l-24.5 1.5c-1.7 0-3.4 0-3.4 1.7z"/>
					<path class="st34" d="m635.7 356.2h-0.2c-0.9-0.1-1.5-0.9-1.4-1.8l2.8-25.1c0.1-0.9 0.9-1.5 1.8-1.4s1.5 0.9 1.4 1.8l-2.8 25.1c-0.1 0.7-0.8 1.4-1.6 1.4z"/>
				<circle class="st4" cx="505.4" cy="332.9" r="9.6"/>
			<linearGradient id="a" x1="643.54" x2="643.54" y1="306.43" y2="86.236" gradientUnits="userSpaceOnUse">
				<stop stop-color="#fff" offset="0"/>
				<stop stop-color="#fff" stop-opacity="0" offset=".6054"/>
			</linearGradient>
			<path class="st35" d="m631.2 309.9c6-2.6 7.7-11 4.9-16.9s-8.6-9.8-14.5-12.8c-5.8-3-12.1-5.5-16.8-10-2.7-2.6-4.9-6.1-4.5-9.8 0.5-3.9 3.9-6.9 7.7-8.2 3.8-1.2 7.8-1.1 11.8-1 4.5 0.1 9.6-0.3 12.4-3.8 3.5-4.3 1.4-11-2.6-14.8s-9.4-5.6-14.3-8.3c-17.6-9.7-26.7-32.4-20.9-51.6 0 0 8.5-36.4 25.6-43.9s60.7-12.5 60.7-12.5l11.3 27.4c4.1 12.4 2.5 26.2-2.2 38.3-4.7 12.2-12.3 23-20.3 33.3-4.2 5.5-8.9 11.9-7.4 18.6 1.2 5.6 6.3 9.4 10.4 13.5s7.5 10.3 4.8 15.3c-1.2 2.1-3.2 3.6-5.3 4.7-8.1 4.4-17.6 5.5-26.9 6.2-1.3 0.1-2.7 0.2-3.7 1-1.7 1.3-1.7 4-0.8 5.9s2.5 3.5 3.7 5.3c5.3 8.1-0.6 21-10.2 22.3l-2.9 1.8z"/>
</svg>
