<?xml version="1.0" encoding="UTF-8"?>
<svg enable-background="new 0 0 960 640" version="1.1" viewBox="0 0 960 640" xml:space="preserve" xmlns="http://www.w3.org/2000/svg">
<style type="text/css">
	.st0{fill:#EBE8F1;}
	.st1{fill:#0E2F57;}
	.st2{fill:#8B84A0;}
	.st3{fill:#46A1D3;}
	.st4{fill:#126387;}
	.st5{fill:#5B48AA;}
	.st6{fill:#403956;}
	.st7{fill:#B5B0C1;}
	.st8{fill:#25527F;}
	.st9{fill:#F2A181;}
	.st10{fill:#FC3153;}
	.st11{fill:#CE2449;}
	.st12{fill:#6A6384;}
	.st13{fill:#615C7F;}
	.st14{fill:#342E4C;}
	.st15{fill:#362C37;}
	.st16{fill:#5ACFD6;}
	.st17{fill:#FFFFFF;}
	.st18{fill:#FA9E89;}
	.st19{fill:#E7846F;}
	.st20{fill:#0B89E0;}
	.st21{opacity:0.2;fill:#8B84A0;}
</style>
		<path class="st0" d="m947.3 537.2c0.1-0.4 0.1-0.8 0.2-1.2 4.9-58.8-11.3-118.4-39.3-170.4-28.1-52.2-67.7-97.4-111.2-137.7-136.4-126.6-320.7-209.2-506.3-195.2-61.2 4.6-122.5 20-174.2 53.1s-92.8 85.2-104.2 145.5c-11.5 60.4 7.7 124 42.6 174.6 35.5 51.4 87.8 91.7 147.6 109.9 86.1 26.3 178.4 6.3 267.1-9.2 88.6-15.5 185.2-25 263.9 18.6 35.2 19.5 64.2 48.5 98 70.5 23.8 15.5 54.9 27.5 79.8 13.9 23.1-12.4 30.5-46.6 36-72.4z"/>
	<path class="st1" d="m338.8 323.3h468.6c12.5 0 22.6-10.1 22.6-22.6v-255.9c0-12.5-10.1-22.6-22.6-22.6h-468.6c-12.5 0-22.6 10.1-22.6 22.6v255.9c0 12.5 10.1 22.6 22.6 22.6z"/>
	<path class="st1" d="m290.5 311.6v-277.6c0-6.5-5.3-11.7-11.7-11.7h-117c-6.5 0-11.7 5.3-11.7 11.7v277.6c0 6.5 5.3 11.7 11.7 11.7h117c6.4 0 11.7-5.2 11.7-11.7z"/>
	<path class="st2" d="m277.4 299v-252.4c0-5.4-4.4-9.7-9.7-9.7h-94.8c-5.4 0-9.7 4.4-9.7 9.7v252.4c0 5.4 4.4 9.7 9.7 9.7h94.8c5.4 0.1 9.7-4.3 9.7-9.7z"/>
	<path class="st3" d="m342.6 305.3h456.5c4.8 0 8.7-3.9 8.7-8.7v-247.6c0-4.8-3.9-8.7-8.7-8.7h-456.5c-4.8 0-8.7 3.9-8.7 8.7v247.5c-0.1 4.9 3.8 8.8 8.7 8.8z"/>
	<path class="st4" d="m386.3 180.4h73.9c4.8 0 8.7-3.9 8.7-8.7v-90.9c0-4.8-3.9-8.7-8.7-8.7h-73.9c-4.8 0-8.7 3.9-8.7 8.7v90.9c-0.1 4.8 3.9 8.7 8.7 8.7z"/>
			<rect class="st5" transform="matrix(-1 -4.4942e-11 4.4942e-11 -1 885.09 902.65)" x="310.4" y="376.7" width="264.3" height="149.3"/>
			<rect class="st2" transform="matrix(-1 -4.4942e-11 4.4942e-11 -1 885.09 902.65)" x="310.4" y="376.7" width="264.3" height="149.3"/>
		<rect class="st6" x="261.5" y="376.7" width="48.9" height="149.3"/>
			<rect class="st1" transform="matrix(-1 -4.4783e-11 4.4783e-11 -1 648.91 1028.1)" x="261.5" y="424.9" width="125.9" height="178.4"/>
		<polygon class="st7" points="353.1 505.4 816.2 505.4 773.5 424.9 310.4 424.9"/>
		<polygon class="st2" points="366.4 490.7 435.6 490.7 408.4 439.5 339.2 439.5"/>
		<polygon class="st2" points="436 468.3 504.7 468.3 489.5 439.5 420.8 439.5"/>
			<rect class="st3" transform="matrix(-1 -4.4885e-11 4.4885e-11 -1 1240.2 1108.6)" x="383.8" y="505.4" width="472.7" height="97.9"/>
			<rect class="st6" transform="matrix(-1 -4.4842e-11 4.4842e-11 -1 858.93 1052)" x="407.5" y="518.8" width="43.9" height="14.4"/>
			<rect class="st6" transform="matrix(-1 -4.4883e-11 4.4883e-11 -1 858.93 1107.6)" x="407.5" y="546.6" width="43.9" height="14.4"/>
			<rect class="st1" transform="matrix(-1 -4.4846e-11 4.4846e-11 -1 834.91 1052)" x="407.5" y="518.8" width="19.9" height="14.4"/>
			<rect class="st1" transform="matrix(-1 -4.4937e-11 4.4937e-11 -1 834.91 1107.6)" x="407.5" y="546.6" width="19.9" height="14.4"/>
		<circle class="st8" cx="455.1" cy="482.8" r="7.7"/>
		<path class="st6" d="m482.4 518.8c8 0 14.4 6.5 14.4 14.4h-28.8c0-8 6.4-14.4 14.4-14.4z"/>
		<circle class="st8" cx="477.2" cy="482.8" r="7.7"/>
		<circle class="st8" cx="499.5" cy="482.8" r="7.7"/>
			<rect class="st3" transform="matrix(-1 -4.4825e-11 4.4825e-11 -1 536.95 1078.3)" x="224.8" y="475" width="87.4" height="128.2"/>
		<rect class="st1" x="155.2" y="475" width="69.6" height="128.2"/>
			<rect class="st6" transform="matrix(-1 -4.4809e-11 4.4809e-11 -1 746.72 801.04)" x="339.2" y="389.1" width="68.3" height="22.9"/>
			<rect class="st6" transform="matrix(-1 -4.5242e-11 4.5242e-11 -1 872.3 801.04)" x="420.9" y="389.1" width="30.5" height="22.9"/>
		<path class="st9" d="m770.6 418.2c-0.6-1.2-1.6-2.2-2.6-3.1-0.8-0.8-1.8-1.4-2.9-1.7-2-1-4.1-1.5-5.8-2.9-2.3-1.9-2.4-5.3-2.4-8.3-1.2 0-2.4 0-3.5-0.1 1.1-2.9 2.9-7 4.3-9.8l3.2-6.3 13.2 10.6 12.6 15.7 1.6 7.2-17.2 2.1c0.1-1 0.1-2.2-0.5-3.4z"/>
			<path class="st10" d="m712.5 462.8c5.3 2.3 10.2 4 16 5.2 1.2 0.3 2.6 0.5 3.6-0.2 0.6-0.4 1-1 1.4-1.6 1.1-1.6 2.2-3.3 3.3-5 3.9-6 8-12.4 10.9-18.6 0.8-1.8 1.6-3.6 2.5-5.3 4.2-7.6 3.7-14.2 20.7-14.3 0.1-0.4 0.1-0.8 0.2-1.3l17.2-2.1 7.1 2.2-0.4-0.1c3.3 0.8 6.5 2 9.2 4.1 2.6 2.1 4.6 5.2 4.8 8.6l-9.2 21.7-27.9 28.4-3.1 1.6-8.3 1.2c-2.1-8.3-7.5-22.9-8.5-29.1-2.3 3.1-5 6.3-7.4 9.5-0.3 0.4-0.6 0.8-1 1.2-2.8 3.8-5.9 7.8-10.3 9.6-0.7 0.3-1.4 0.5-2.1 0.5-0.9 0-1.8-0.5-2.7-0.9-6.1-3.1-12.2-6.3-18.3-9.4l2.3-5.9z"/>
			<path class="st9" d="m695.8 453c2.6 1.4 5.2 2.7 8 3.9 0-0.6 0.2-1.5 0.8-1.5 0.3 0 0.5 0.2 0.7 0.4 1.8 2.3 2.4 4.5 5.4 6.2 0.6 0.3 1.2 0.5 1.8 0.8l-2.2 5.8c-0.1 0-0.2-0.1-0.2-0.1-4.9-2.7-8.5-5.9-12.2-9.4-0.9-0.8-1.8-1.6-2.3-2.7-0.6-1.1-0.6-2.5 0.2-3.4z"/>
		<polygon class="st11" points="784.9 417.6 770 420.7 770.9 422.9 789 421.9"/>
		<path class="st6" d="m731.6 573.3c0-1.7-0.1-6.2-0.1-11.2h-18.6s10.3-44.7 12.4-52.4c0.1-0.2 0.1-0.4 0.2-0.6 0.1-0.3 0.1-0.4 0.2-0.5 0.2-0.6 0.4-1 0.6-1.2 1.2-0.9 2.9-1.2 4.4-1.4 12.9-2 25.9-3.9 39-4.1v-1l2.2 7.6-2.5 29 11.6 2.4-3.8 22.2h-9.6c0.7 7.4 1.3 14.2 1.3 19.4 0 0 2.3 11-0.7 12s-3.9-1.7-3.9-1.7c-1.4-6.9-3.5-13.6-5.6-20.2-0.5-1.5-1.6-5.2-2.8-9.5h-12.3c-1.6 9.1-3.3 17.5-4.9 23.5 0 0-0.1 1.2-0.3 2.9-0.2 2.2-0.5 4.4-0.9 6.6 0 0-0.6 2.2-1.8 2.2-0.4 0-0.6-0.2-0.8-0.4h-0.2c-3.2 0.1-3.3-2.7-3.3-2.7 0.5-6.9 0.4-13.9 0.2-20.9z"/>
			<rect class="st12" transform="matrix(-1 -4.4837e-11 4.4837e-11 -1 1508.5 1088.9)" x="734.4" y="537.4" width="39.8" height="14.1"/>
			<rect class="st13" x="780" y="545.4" width="12.9" height="61.9"/>
		<path class="st2" d="m759.6 552.1h58.9c8.1 0 14.7-6.6 14.7-14.7v-88.3c0-8.1-6.6-14.7-14.7-14.7h-44.2c-8.1 0-14.7 6.6-14.7 14.7v103z"/>
		<path class="st2" d="m773.1 596.1c-0.4 2.2-0.7 4.4-1.1 6.6-0.1 0.6-0.2 1.3-0.7 1.6-0.5 0.4-1.3 0.4-2 0.2s-1.3-0.5-2-0.6l-0.5 0.3-10.2-0.9c-2.3-0.2-4.8-0.5-6.4-2.2-0.3-0.3-0.6-0.7-0.6-1.1-0.1-0.8 0.5-1.6 1.2-1.9 0.7-0.4 1.6-0.4 2.4-0.5 5.3-0.4 10.5-1.8 15.3-4 0.1 0 5.3-1.6 4.6 2.5z"/>
			<path class="st14" d="m747.7 607.3h12.9v-4c0-1.9 1.6-3.5 3.5-3.5h44.7c1.9 0 3.5 1.6 3.5 3.5v4h12.9v-4c0-9-7.4-16.4-16.4-16.4h-44.7c-8.5 0-15.6 6.6-16.3 14.9h-0.1v5.5z"/>
		<path class="st2" d="m737.3 596.1c0 2.2 0.1 4.4 0.1 6.5 0 0.6 0 1.3-0.4 1.7-0.4 0.5-1.2 0.6-1.9 0.5s-1.3-0.3-2-0.2l-0.4 0.4c-3.3 0.3-6.7 0.6-10 0.9-2.2 0.2-4.7 0.3-6.5-1-0.3-0.3-0.7-0.6-0.8-1-0.2-0.8 0.2-1.6 0.8-2.1s1.4-0.6 2.2-0.8c5-1.3 9.9-3.5 14.1-6.4 0-0.2 4.8-2.6 4.8 1.5z"/>
		<path class="st15" d="m777.1 415.5c-2.9-0.7-5.6-2.1-7.9-3.9-0.9-0.7-1.9-1.6-1.9-2.8-0.1-1.8 2.1-3.2 2-5-0.1-1.4-1.5-2.3-2.7-3-3.7-2.2-7.3-5.1-9.2-9s-1.3-9 1.4-12.2c0.9-1.1 3.3-3.4 5.5-4.2 3-1 4.9-1 7.4-1.4 1.8-0.3 3.6-0.5 5.4-0.3 3 0.3 5.8 1.9 8 4 2.3 2 4.1 4.5 5.8 7 1.8 2.6 3.7 5.2 4.5 8.3s0.2 6.7-2.2 8.8c-0.4 0.4-0.9 0.7-1.2 1.1s-0.5 1.1-0.2 1.5c0.1 0.2 0.4 0.4 0.5 0.5 2.4 1.9 3.2 5.5 1.8 8.2 0 0-3.8 5.3-2.1 6.5 1.9 1.4 3.9 2.7 5.5 4.5s2.6 4.1 2.4 6.5c-0.1 1.6-0.8 3.1-0.7 4.6 0.2 1.6 1.2 3.1 2.3 4.3 3 3.3 6.8 5.9 10 9.1 3.8 3.9 6.8 8.8 7.4 14.3 0.6 5.4-1.4 11.3-5.8 14.5-3.5 2.6-8.1 3.2-12.4 3.2-2.5 0-5.1-0.2-7.3-1.4-1.6-0.8-3-2.1-4.2-3.6-4.4-5.4-6.2-12.9-4.6-19.7 0.9-3.7 2.7-7.2 3.2-11 0.4-3.6-0.4-7.3-1.9-10.7-0.4-0.9-0.9-1.8-1.1-2.8-0.9-4.2 5-7.9 1.4-11.5 0.1 0.1-2.9-2.9-9.1-4.4z"/>
		<path class="st9" d="m542 380.7c9-1 17 8.1 17 8.1l4.5 5.4c1.9 2.4 4.6 6.1 6.2 8.7-1.1 0.4-2.3 0.7-3.4 0.9 0.7 2.9 1.2 6.2-0.6 8.6-1.4 1.7-3.3 2.7-5 4-1 0.6-1.9 1.4-2.5 2.3-0.8 1.1-1.6 2.3-1.9 3.6s1.2 4.8 1.5 5.8l-11.9 3.1-4.5-11.6s-0.5-2.3-2.7-3.3h-0.1c-5.4-1.9-8.5-7.4-8.5-7.4-10.1-14.8 2.9-27.2 11.9-28.2z"/>
			<path class="st16" d="m519.6 446.7c0.8-1.8 1.6-3.6 2.5-5.3 4.2-7.6 3.7-14.2 20.7-14.3 0.1-0.4 0.1-0.8 0.2-1.3l17.2-2.1 7.1 2.2-0.4-0.1c3.3 0.8 6.5 2 9.2 4.1 2.6 2.1 4.6 5.2 4.8 8.6l-9.2 21.7-27.9 28.4-3.1 1.6-8.3 1.2c-2.1-8.3-3.7-28.1-4.7-34.3-1.5 2.1-4.8 6.4-7.6 10l-9.3-5c3.3-5 6.5-10.3 8.8-15.4z"/>
			<path class="st9" d="m467.7 457.1c2.6 1.4 5.2 2.7 8 3.9 0-0.6 0.2-1.5 0.8-1.5 0.3 0 0.5 0.2 0.7 0.4 1.8 2.3 2.4 4.5 5.4 6.2 0.6 0.3 1.2 0.5 1.8 0.8 5.3 2.3 10.2 4 16 5.2 1.2 0.3 2.6 0.5 3.6-0.2 0.6-0.4 1-1 1.4-1.6 0.7-1.1 1.5-2.2 2.2-3.4 0.4-0.5 0.7-1.1 1.1-1.6 0.7-1 1.4-2.1 2-3.1l9.3 5c-1.4 1.9-2.8 3.6-3.6 4.7-0.3 0.4-0.6 0.8-1 1.2-0.2 0.3-0.5 0.7-0.7 1-2.6 3.5-5.5 6.9-9.5 8.6-0.7 0.3-1.4 0.5-2.1 0.5-0.9 0-1.8-0.5-2.7-0.9-6.1-3.1-12.2-6.3-18.3-9.4-0.1 0-0.2-0.1-0.2-0.1-4.9-2.7-8.5-5.9-12.2-9.4-0.9-0.8-1.8-1.6-2.3-2.7-0.4-1.3-0.4-2.6 0.3-3.6z"/>
		<path class="st6" d="m541.5 513.5c-13.1 0.2-26.1 2-39 3.8-1.5 0.2-3.1 0.5-4.4 1.3-1.2 0.9-1.5 2.2-1.2 3.7 2.5 10.5 2.9 40 5.4 50.5 1.8 7.4 3.6 14.8 4.1 22.4 0 0-0.1 1.2 1.1 1.2s1.8-2 1.8-2c1.1-5.8 1.4-11.8 1.7-17.7 0.6-9.4 1.4-22.2 2.4-31.5l27.4 0.8 2.9-26.4-2.2-6.9"/>
		<path class="st6" d="m537.5 587.7c3.2-11.8 6.4-36.4 9.6-48.2l-16.1 0.5c0.7 5.5 0.9 11 1 16.5 0.1 3.1 0.1 19 0.2 22.1 0.1 5.2 0.2 10.4-0.2 15.5 0 0 0.1 2.1 2.5 2s3-8.4 3-8.4z"/>
			<rect class="st12" transform="matrix(-1 -4.4791e-11 4.4791e-11 -1 1052.4 1087.3)" x="506.3" y="536.6" width="39.8" height="14.1"/>
			<rect class="st13" x="552" y="544.6" width="12.9" height="61.9"/>
		<path class="st2" d="m531.6 551.3h58.9c8.1 0 14.7-6.6 14.7-14.7v-83.3c0-8.1-6.6-14.7-14.7-14.7h-44.2c-8.1 0-14.7 6.6-14.7 14.7v98z"/>
		<path class="st2" d="m537.4 596.7c0 2.2 0.1 4.4 0.1 6.6 0 0.6 0 1.3-0.4 1.7-0.4 0.5-1.2 0.6-1.9 0.5s-1.4-0.3-2-0.2l-0.5 0.4-10.2 0.9c-2.3 0.2-4.8 0.3-6.6-1-0.4-0.3-0.7-0.6-0.8-1-0.3-0.8 0.2-1.6 0.9-2.1s1.5-0.7 2.2-0.9c5.1-1.3 10-3.5 14.4-6.6-0.1 0 4.7-2.4 4.8 1.7z"/>
			<path class="st14" d="m519.7 606.4h12.9v-4c0-1.9 1.6-3.5 3.5-3.5h44.7c1.9 0 3.5 1.6 3.5 3.5v4h12.9v-4c0-9-7.4-16.4-16.4-16.4h-44.7c-8.5 0-15.6 6.6-16.3 14.9h-0.1v5.5z"/>
		<path class="st2" d="m510.3 595.3c0 2.2 0.1 4.4 0.1 6.5 0 0.6 0 1.3-0.4 1.7-0.4 0.5-1.2 0.6-1.9 0.5s-1.3-0.3-2-0.2l-0.4 0.4c-3.3 0.3-6.7 0.6-10 0.9-2.2 0.2-4.7 0.3-6.5-1-0.3-0.3-0.7-0.6-0.8-1-0.2-0.8 0.2-1.6 0.8-2.1s1.4-0.6 2.2-0.8c5-1.3 9.9-3.5 14.1-6.4 0-0.2 4.7-2.6 4.8 1.5z"/>
		<path class="st5" d="m518.1 479.3"/>
		<path class="st17" d="m678.4 403s-3.7-3.7-2.8-11.2-28.1-4.7-28.1-4.7l-2.8 11.2-0.9 6.6 24.3 18.7 10.3-20.6z"/>
		<path class="st18" d="m714.9 591s-3.2 8.5-2.1 12.8 0 10.7-3.2 10.7-13.9-4.3-16-3.2-4.3-5.3 3.2-5.3 7.5-4.3 8.5-5.3-2.1-7.5-2.1-7.5"/>
		<path class="st19" d="m606.2 369.2c-3-2.6-4.8-4.4-7.8-7-1.3-1.1-2.8-2.5-2.8-4.2 0-1.1 0.6-2.2 1.4-3 0.3-0.3 0.7-0.7 1.2-0.8 1-0.4 2.2 0.2 3.1 0.8 2.3 1.6 4.3 3.6 5.8 5.9 0.5-0.3 0.6-1 0.7-1.5 0.2-0.6 0.7-1.1 1.2-0.9 0.2 0.1 0.3 0.3 0.4 0.5 1.1 2.1 1.2 4.4 1.4 6.8 5.9 4.8 10.1 8.5 16.6 13.5 0.7-8.5 0.8-15.1 0.8-23.6-0.1-7-0.3-14.2 1.5-21 0.2-0.8 0.6-1.7 1.4-1.9 0.4-0.1 0.8 0.1 1.2 0.3 2.4 1.3 4.4 3.2 5.7 5.6l5.8 9.6c0.3 5.5-1.5 10.8-3.5 15.9-2.7 6.9-4.6 17.1-7.9 23.7-1 2.1-2.6 4.4-4.9 4.2-1.3-0.1-2.4-1.1-3.3-2.1-6.4-6.5-12.4-13.5-18-20.8z"/>
		<path class="st18" d="m633.7 603.8s-10.7 5.3-19.2 8.5-2.1 9.6 4.3 9.6 10.7-4.3 18.2-3.2 12.8-9.6 8.5-12.8"/>
			<path class="st19" d="m686 363.7c11.2 6.6 11.8 27 11.8 27-2.9 7.4-8.4 12.4-12 19.5l-8.8 11.9 4.7 4.7 9.5-11.3c3.8-5 8.8-10.3 12.7-15.3 3.8-5 7.8-10.5 8-16.8 0.1-4.5-1.7-8.7-3.6-12.8-5.7-12.2-12.2-23.2-19.8-34.3 0 0-9.7-12.4-14.7-9.1"/>
				<path class="st19" d="m629 344.9v-0.5l0.2 0.1-0.2 0.4z"/>
			<path class="st8" d="m657.8 475.1c13.1 39.2 28.3 77.7 44.3 115.8 0.4 0.9 0.8 1.9 1.8 2.2 1.1 0.4 7.9-2.2 10.5-1.5-0.5-15.5-2-31-3.4-46.4-0.7-7.5-1.4-15.1-3.9-22.2-5.2-15.4-17.8-28.5-17.9-44.8 0-8 5.6-25.9 5.8-27.2 3.2-17.5-3.1-36.5-16.6-48l-34.6 1.9c-19.4 40.4-24 88.5-13.8 132.2 3.5 22.4 4.2 45.1 3.7 67.7 5.7 0.2 7 0.6 11.3 1.7 2-11.2 3.8-22.6 5.8-33.8 2.2-12.2 4.3-24.9 1.5-37-1-4.1-2.5-8.1-2.7-12.3-0.3-5.7 2-11.3 3.6-16.8 3-9.9 5.1-21 4.6-31.5z"/>
		<path class="st17" d="m678.4 403s-6.6 5.6-11.2 5.6-23.4-3.7-23.4-3.7l1.9-1.9 30.9-0.9 1.8 0.9z"/>
			<path class="st19" d="m625.1 303.1s0.6 9.2-0.1 13.8 8.6 10.3 8.6 10.3"/>
				<path class="st10" d="m688 400c10-4.9 19.4-14 20-25.2 0.4-7.6-3.5-15.1-9.3-20.1-4.9-4.2-11.1-6.9-15.5-11.7-0.9-0.9-1.6-2-2-3.2-0.6-1.9-0.1-4 0.3-6 0.6-3 1.1-6.3-0.1-9.2-1.9-4.6-7.4-6.5-10.9-10.1-3.5-3.5-5.1-8.4-7.4-12.7-4.6-8.4-12.6-14.9-21.9-17.7 0 0-5.7-1.4-12.2 4.1-6 5.1-4.2 15-2.5 22.6s4.5 15.2 4.3 23c-0.1 3.6-0.9 7.2-0.7 10.8 0.2 4.1 1.7 8.1 4.3 11.4 1.7 2.2 3.9 4.1 5.1 6.6 1.9 3.8 1.3 8.3 1.1 12.5-0.5 8.5 0.7 17.9 6.7 24 6.5 6.7 29.6 6.2 40.7 0.9z"/>
		<path class="st19" d="m690.6 416s-4.5 7.4-3.6 12.3c0.9 4.8-3.9 6-3.9 6s-6-1.7-4.6-9.7c0 0-2.1 2-3.7 1.7-1.6-0.2 11.4-16.3 11.4-16.3"/>
		<path class="st4" d="m421.3 208.1c-18.2 0-33 14.8-33 33s14.8 33 33 33 33-14.8 33-33h-33v-33z"/>
	<path class="st10" d="m428.4 200.2v33h33c-0.1-18.2-14.8-33-33-33z"/>
		<path class="st20" d="m424.2 98.1h-29.2c-1.9 0-3.4-1.6-3.4-3.4v-4.7c0-1.9 1.6-3.4 3.4-3.4h29.2c1.9 0 3.4 1.6 3.4 3.4v4.7c0.1 1.9-1.5 3.4-3.4 3.4z"/>
		<path class="st20" d="m448.4 98.1h-8.7c-1.9 0-3.4-1.6-3.4-3.4v-4.7c0-1.9 1.6-3.4 3.4-3.4h8.7c1.9 0 3.4 1.6 3.4 3.4v4.7c0 1.9-1.5 3.4-3.4 3.4z"/>
		<path class="st20" d="m419.2 132.1h29.2c1.9 0 3.4 1.6 3.4 3.4v4.7c0 1.9-1.6 3.4-3.4 3.4h-29.2c-1.9 0-3.4-1.6-3.4-3.4v-4.7c-0.1-1.8 1.5-3.4 3.4-3.4z"/>
		<path class="st16" d="m395 132.1h8.7c1.9 0 3.4 1.6 3.4 3.4v4.7c0 1.9-1.6 3.4-3.4 3.4h-8.7c-1.9 0-3.4-1.6-3.4-3.4v-4.7c0-1.8 1.5-3.4 3.4-3.4z"/>
	<path class="st16" d="m439.1 120.9h-44.1c-1.9 0-3.4-1.6-3.4-3.4v-4.7c0-1.9 1.6-3.4 3.4-3.4h44.1c1.9 0 3.4 1.6 3.4 3.4v4.7c0.1 1.9-1.5 3.4-3.4 3.4z"/>
		<path class="st16" d="m413.6 166.5h-18.6c-1.9 0-3.4-1.6-3.4-3.4v-4.7c0-1.9 1.6-3.4 3.4-3.4h18.6c1.9 0 3.4 1.6 3.4 3.4v4.7c0.1 1.9-1.5 3.4-3.4 3.4z"/>
		<path class="st16" d="m445.6 166.5h-18.6c-1.9 0-3.4-1.6-3.4-3.4v-4.7c0-1.9 1.6-3.4 3.4-3.4h18.6c1.9 0 3.4 1.6 3.4 3.4v4.7c0 1.9-1.5 3.4-3.4 3.4z"/>
	<rect class="st4" x="736" y="182.4" width="26.1" height="91.7"/>
	<rect class="st4" x="673.8" y="216.7" width="26.1" height="57.4"/>
	<rect class="st4" x="606.7" y="241.1" width="26.1" height="33"/>
			<path class="st7" d="m218.8 261.6h29.2c1.9 0 3.4 1.6 3.4 3.4v4.7c0 1.9-1.6 3.4-3.4 3.4h-29.2c-1.9 0-3.4-1.6-3.4-3.4v-4.7c-0.1-1.9 1.5-3.4 3.4-3.4z"/>
			<path class="st1" d="m194.6 261.6h8.7c1.9 0 3.4 1.6 3.4 3.4v4.7c0 1.9-1.6 3.4-3.4 3.4h-8.7c-1.9 0-3.4-1.6-3.4-3.4v-4.7c-0.1-1.9 1.5-3.4 3.4-3.4z"/>
			<path class="st1" d="m223.8 227.6h-29.2c-1.9 0-3.4-1.6-3.4-3.4v-4.7c0-1.9 1.6-3.4 3.4-3.4h29.2c1.9 0 3.4 1.6 3.4 3.4v4.7c0 1.8-1.5 3.4-3.4 3.4z"/>
			<path class="st6" d="m248 227.6h-8.7c-1.9 0-3.4-1.6-3.4-3.4v-4.7c0-1.9 1.6-3.4 3.4-3.4h8.7c1.9 0 3.4 1.6 3.4 3.4v4.7c0 1.8-1.5 3.4-3.4 3.4z"/>
		<path class="st1" d="m203.8 238.8h44.2c1.9 0 3.4 1.6 3.4 3.4v4.7c0 1.9-1.6 3.4-3.4 3.4h-44.1c-1.9 0-3.4-1.6-3.4-3.4v-4.7c-0.1-1.9 1.5-3.4 3.3-3.4z"/>
			<path class="st7" d="m229.4 193.2h18.6c1.9 0 3.4 1.6 3.4 3.4v4.7c0 1.9-1.6 3.4-3.4 3.4h-18.6c-1.9 0-3.4-1.6-3.4-3.4v-4.7c-0.1-1.9 1.5-3.4 3.4-3.4z"/>
			<path class="st7" d="m197.4 193.2h18.6c1.9 0 3.4 1.6 3.4 3.4v4.7c0 1.9-1.6 3.4-3.4 3.4h-18.6c-1.9 0-3.4-1.6-3.4-3.4v-4.7c-0.1-1.9 1.5-3.4 3.4-3.4z"/>
	<rect class="st4" x="543.6" y="252.9" width="26.1" height="21.1"/>
	<rect class="st4" x="478.7" y="252.9" width="26.1" height="21.1"/>
			<path class="st17" d="m504.7 79.5c-0.5 0-1-0.4-1-1v-4c0-0.5 0.4-1 1-1s1 0.4 1 1v4c0 0.6-0.4 1-1 1z"/>
			<path class="st17" d="m504.7 263.4c-0.5 0-1-0.4-1-1v-7.7c0-0.5 0.4-1 1-1s1 0.4 1 1v7.7c0 0.6-0.4 1-1 1zm0-15.3c-0.5 0-1-0.4-1-1v-7.7c0-0.5 0.4-1 1-1s1 0.4 1 1v7.7c0 0.6-0.4 1-1 1zm0-15.3c-0.5 0-1-0.4-1-1v-7.7c0-0.5 0.4-1 1-1s1 0.4 1 1v7.7c0 0.5-0.4 1-1 1zm0-15.3c-0.5 0-1-0.4-1-1v-7.7c0-0.5 0.4-1 1-1s1 0.4 1 1v7.7c0 0.5-0.4 1-1 1zm0-15.4c-0.5 0-1-0.4-1-1v-7.7c0-0.5 0.4-1 1-1s1 0.4 1 1v7.7c0 0.6-0.4 1-1 1zm0-15.3c-0.5 0-1-0.4-1-1v-7.7c0-0.5 0.4-1 1-1s1 0.4 1 1v7.7c0 0.6-0.4 1-1 1zm0-15.3c-0.5 0-1-0.4-1-1v-7.7c0-0.5 0.4-1 1-1s1 0.4 1 1v7.7c0 0.5-0.4 1-1 1zm0-15.3c-0.5 0-1-0.4-1-1v-7.7c0-0.5 0.4-1 1-1s1 0.4 1 1v7.7c0 0.5-0.4 1-1 1zm0-15.4c-0.5 0-1-0.4-1-1v-7.7c0-0.5 0.4-1 1-1s1 0.4 1 1v7.7c0 0.6-0.4 1-1 1zm0-15.3c-0.5 0-1-0.4-1-1v-7.7c0-0.5 0.4-1 1-1s1 0.4 1 1v7.7c0 0.6-0.4 1-1 1zm0-15.3c-0.5 0-1-0.4-1-1v-7.7c0-0.5 0.4-1 1-1s1 0.4 1 1v7.7c0 0.5-0.4 1-1 1zm0-15.3c-0.5 0-1-0.4-1-1v-7.7c0-0.5 0.4-1 1-1s1 0.4 1 1v7.7c0 0.5-0.4 1-1 1z"/>
			<path class="st17" d="m504.7 275.1c-0.5 0-1-0.4-1-1v-4c0-0.5 0.4-1 1-1s1 0.4 1 1v4c0 0.5-0.4 1-1 1z"/>
			<path class="st17" d="m569.1 79.5c-0.5 0-1-0.4-1-1v-4c0-0.5 0.4-1 1-1 0.5 0 1 0.4 1 1v4c0 0.6-0.5 1-1 1z"/>
			<path class="st17" d="m569.1 263.4c-0.5 0-1-0.4-1-1v-7.7c0-0.5 0.4-1 1-1 0.5 0 1 0.4 1 1v7.7c0 0.6-0.5 1-1 1zm0-15.3c-0.5 0-1-0.4-1-1v-7.7c0-0.5 0.4-1 1-1 0.5 0 1 0.4 1 1v7.7c0 0.6-0.5 1-1 1zm0-15.3c-0.5 0-1-0.4-1-1v-7.7c0-0.5 0.4-1 1-1 0.5 0 1 0.4 1 1v7.7c0 0.5-0.5 1-1 1zm0-15.3c-0.5 0-1-0.4-1-1v-7.7c0-0.5 0.4-1 1-1 0.5 0 1 0.4 1 1v7.7c0 0.5-0.5 1-1 1zm0-15.4c-0.5 0-1-0.4-1-1v-7.7c0-0.5 0.4-1 1-1 0.5 0 1 0.4 1 1v7.7c0 0.6-0.5 1-1 1zm0-15.3c-0.5 0-1-0.4-1-1v-7.7c0-0.5 0.4-1 1-1 0.5 0 1 0.4 1 1v7.7c0 0.6-0.5 1-1 1zm0-15.3c-0.5 0-1-0.4-1-1v-7.7c0-0.5 0.4-1 1-1 0.5 0 1 0.4 1 1v7.7c0 0.5-0.5 1-1 1zm0-15.3c-0.5 0-1-0.4-1-1v-7.7c0-0.5 0.4-1 1-1 0.5 0 1 0.4 1 1v7.7c0 0.5-0.5 1-1 1zm0-15.4c-0.5 0-1-0.4-1-1v-7.7c0-0.5 0.4-1 1-1 0.5 0 1 0.4 1 1v7.7c0 0.6-0.5 1-1 1zm0-15.3c-0.5 0-1-0.4-1-1v-7.7c0-0.5 0.4-1 1-1 0.5 0 1 0.4 1 1v7.7c0 0.6-0.5 1-1 1zm0-15.3c-0.5 0-1-0.4-1-1v-7.7c0-0.5 0.4-1 1-1 0.5 0 1 0.4 1 1v7.7c0 0.5-0.5 1-1 1zm0-15.3c-0.5 0-1-0.4-1-1v-7.7c0-0.5 0.4-1 1-1 0.5 0 1 0.4 1 1v7.7c0 0.5-0.5 1-1 1z"/>
			<path class="st17" d="m569.1 275.1c-0.5 0-1-0.4-1-1v-4c0-0.5 0.4-1 1-1 0.5 0 1 0.4 1 1v4c0 0.5-0.5 1-1 1z"/>
			<path class="st17" d="m633.4 79.5c-0.5 0-1-0.4-1-1v-4c0-0.5 0.4-1 1-1s1 0.4 1 1v4c0 0.6-0.4 1-1 1z"/>
			<path class="st17" d="m633.4 263.4c-0.5 0-1-0.4-1-1v-7.7c0-0.5 0.4-1 1-1s1 0.4 1 1v7.7c0 0.6-0.4 1-1 1zm0-15.3c-0.5 0-1-0.4-1-1v-7.7c0-0.5 0.4-1 1-1s1 0.4 1 1v7.7c0 0.6-0.4 1-1 1zm0-15.3c-0.5 0-1-0.4-1-1v-7.7c0-0.5 0.4-1 1-1s1 0.4 1 1v7.7c0 0.5-0.4 1-1 1zm0-15.3c-0.5 0-1-0.4-1-1v-7.7c0-0.5 0.4-1 1-1s1 0.4 1 1v7.7c0 0.5-0.4 1-1 1zm0-15.4c-0.5 0-1-0.4-1-1v-7.7c0-0.5 0.4-1 1-1s1 0.4 1 1v7.7c0 0.6-0.4 1-1 1zm0-15.3c-0.5 0-1-0.4-1-1v-7.7c0-0.5 0.4-1 1-1s1 0.4 1 1v7.7c0 0.6-0.4 1-1 1zm0-15.3c-0.5 0-1-0.4-1-1v-7.7c0-0.5 0.4-1 1-1s1 0.4 1 1v7.7c0 0.5-0.4 1-1 1zm0-15.3c-0.5 0-1-0.4-1-1v-7.7c0-0.5 0.4-1 1-1s1 0.4 1 1v7.7c0 0.5-0.4 1-1 1zm0-15.4c-0.5 0-1-0.4-1-1v-7.7c0-0.5 0.4-1 1-1s1 0.4 1 1v7.7c0 0.6-0.4 1-1 1zm0-15.3c-0.5 0-1-0.4-1-1v-7.7c0-0.5 0.4-1 1-1s1 0.4 1 1v7.7c0 0.6-0.4 1-1 1zm0-15.3c-0.5 0-1-0.4-1-1v-7.7c0-0.5 0.4-1 1-1s1 0.4 1 1v7.7c0 0.5-0.4 1-1 1zm0-15.3c-0.5 0-1-0.4-1-1v-7.7c0-0.5 0.4-1 1-1s1 0.4 1 1v7.7c0 0.5-0.4 1-1 1z"/>
			<path class="st17" d="m633.4 275.1c-0.5 0-1-0.4-1-1v-4c0-0.5 0.4-1 1-1s1 0.4 1 1v4c0 0.5-0.4 1-1 1z"/>
			<path class="st17" d="m697.8 79.5c-0.5 0-1-0.4-1-1v-4c0-0.5 0.4-1 1-1 0.5 0 1 0.4 1 1v4c0 0.6-0.5 1-1 1z"/>
			<path class="st17" d="m697.8 263.4c-0.5 0-1-0.4-1-1v-7.7c0-0.5 0.4-1 1-1 0.5 0 1 0.4 1 1v7.7c0 0.6-0.5 1-1 1zm0-15.3c-0.5 0-1-0.4-1-1v-7.7c0-0.5 0.4-1 1-1 0.5 0 1 0.4 1 1v7.7c0 0.6-0.5 1-1 1zm0-15.3c-0.5 0-1-0.4-1-1v-7.7c0-0.5 0.4-1 1-1 0.5 0 1 0.4 1 1v7.7c0 0.5-0.5 1-1 1zm0-15.3c-0.5 0-1-0.4-1-1v-7.7c0-0.5 0.4-1 1-1 0.5 0 1 0.4 1 1v7.7c0 0.5-0.5 1-1 1zm0-15.4c-0.5 0-1-0.4-1-1v-7.7c0-0.5 0.4-1 1-1 0.5 0 1 0.4 1 1v7.7c0 0.6-0.5 1-1 1zm0-15.3c-0.5 0-1-0.4-1-1v-7.7c0-0.5 0.4-1 1-1 0.5 0 1 0.4 1 1v7.7c0 0.6-0.5 1-1 1zm0-15.3c-0.5 0-1-0.4-1-1v-7.7c0-0.5 0.4-1 1-1 0.5 0 1 0.4 1 1v7.7c0 0.5-0.5 1-1 1zm0-15.3c-0.5 0-1-0.4-1-1v-7.7c0-0.5 0.4-1 1-1 0.5 0 1 0.4 1 1v7.7c0 0.5-0.5 1-1 1zm0-15.4c-0.5 0-1-0.4-1-1v-7.7c0-0.5 0.4-1 1-1 0.5 0 1 0.4 1 1v7.7c0 0.6-0.5 1-1 1zm0-15.3c-0.5 0-1-0.4-1-1v-7.7c0-0.5 0.4-1 1-1 0.5 0 1 0.4 1 1v7.7c0 0.6-0.5 1-1 1zm0-15.3c-0.5 0-1-0.4-1-1v-7.7c0-0.5 0.4-1 1-1 0.5 0 1 0.4 1 1v7.7c0 0.5-0.5 1-1 1zm0-15.3c-0.5 0-1-0.4-1-1v-7.7c0-0.5 0.4-1 1-1 0.5 0 1 0.4 1 1v7.7c0 0.5-0.5 1-1 1z"/>
			<path class="st17" d="m697.8 275.1c-0.5 0-1-0.4-1-1v-4c0-0.5 0.4-1 1-1 0.5 0 1 0.4 1 1v4c0 0.5-0.5 1-1 1z"/>
			<path class="st17" d="m762.1 79.5c-0.5 0-1-0.4-1-1v-4c0-0.5 0.4-1 1-1 0.5 0 1 0.4 1 1v4c0 0.6-0.4 1-1 1z"/>
			<path class="st17" d="m762.1 263.4c-0.5 0-1-0.4-1-1v-7.7c0-0.5 0.4-1 1-1 0.5 0 1 0.4 1 1v7.7c0 0.6-0.4 1-1 1zm0-15.3c-0.5 0-1-0.4-1-1v-7.7c0-0.5 0.4-1 1-1 0.5 0 1 0.4 1 1v7.7c0 0.6-0.4 1-1 1zm0-15.3c-0.5 0-1-0.4-1-1v-7.7c0-0.5 0.4-1 1-1 0.5 0 1 0.4 1 1v7.7c0 0.5-0.4 1-1 1zm0-15.3c-0.5 0-1-0.4-1-1v-7.7c0-0.5 0.4-1 1-1 0.5 0 1 0.4 1 1v7.7c0 0.5-0.4 1-1 1zm0-15.4c-0.5 0-1-0.4-1-1v-7.7c0-0.5 0.4-1 1-1 0.5 0 1 0.4 1 1v7.7c0 0.6-0.4 1-1 1zm0-15.3c-0.5 0-1-0.4-1-1v-7.7c0-0.5 0.4-1 1-1 0.5 0 1 0.4 1 1v7.7c0 0.6-0.4 1-1 1zm0-15.3c-0.5 0-1-0.4-1-1v-7.7c0-0.5 0.4-1 1-1 0.5 0 1 0.4 1 1v7.7c0 0.5-0.4 1-1 1zm0-15.3c-0.5 0-1-0.4-1-1v-7.7c0-0.5 0.4-1 1-1 0.5 0 1 0.4 1 1v7.7c0 0.5-0.4 1-1 1zm0-15.4c-0.5 0-1-0.4-1-1v-7.7c0-0.5 0.4-1 1-1 0.5 0 1 0.4 1 1v7.7c0 0.6-0.4 1-1 1zm0-15.3c-0.5 0-1-0.4-1-1v-7.7c0-0.5 0.4-1 1-1 0.5 0 1 0.4 1 1v7.7c0 0.6-0.4 1-1 1zm0-15.3c-0.5 0-1-0.4-1-1v-7.7c0-0.5 0.4-1 1-1 0.5 0 1 0.4 1 1v7.7c0 0.5-0.4 1-1 1zm0-15.3c-0.5 0-1-0.4-1-1v-7.7c0-0.5 0.4-1 1-1 0.5 0 1 0.4 1 1v7.7c0 0.5-0.4 1-1 1z"/>
			<path class="st17" d="m762.1 275.1c-0.5 0-1-0.4-1-1v-4c0-0.5 0.4-1 1-1 0.5 0 1 0.4 1 1v4c0 0.5-0.4 1-1 1z"/>
	<polygon class="st16" points="506.6 270.3 502.9 264.4 566.9 225 632.7 204.7 695.7 196.9 759.2 96.3 765.1 100 699.8 203.4 634.2 211.6 569.8 231.4"/>
		<circle class="st10" cx="763" cy="97.6" r="9.8"/>
		<path class="st16" d="m763 110.8c-7.3 0-13.3-5.9-13.3-13.3 0-7.3 5.9-13.2 13.3-13.2s13.2 5.9 13.2 13.2c0.1 7.4-5.9 13.3-13.2 13.3zm0-19.5c-3.5 0-6.3 2.8-6.3 6.3s2.8 6.3 6.3 6.3 6.3-2.8 6.3-6.3-2.8-6.3-6.3-6.3z"/>
		<circle class="st10" cx="697.4" cy="199" r="9.8"/>
		<path class="st16" d="m697.4 212.2c-7.3 0-13.3-5.9-13.3-13.3 0-7.3 5.9-13.2 13.3-13.2s13.2 5.9 13.2 13.2c0.1 7.4-5.8 13.3-13.2 13.3zm0-19.5c-3.5 0-6.3 2.8-6.3 6.3s2.8 6.3 6.3 6.3 6.3-2.8 6.3-6.3-2.8-6.3-6.3-6.3z"/>
		<circle class="st10" cx="632.9" cy="208.9" r="9.8"/>
		<path class="st16" d="m632.9 222.1c-7.3 0-13.3-5.9-13.3-13.3 0-7.3 5.9-13.2 13.3-13.2s13.2 5.9 13.2 13.2c0 7.4-5.9 13.3-13.2 13.3zm0-19.5c-3.5 0-6.3 2.8-6.3 6.3s2.8 6.3 6.3 6.3 6.3-2.8 6.3-6.3c-0.1-3.5-2.9-6.3-6.3-6.3z"/>
		<circle class="st10" cx="569.3" cy="226.8" r="9.8"/>
		<path class="st16" d="m569.3 240c-7.3 0-13.3-5.9-13.3-13.3 0-7.3 5.9-13.2 13.3-13.2 7.3 0 13.2 5.9 13.2 13.2 0 7.4-5.9 13.3-13.2 13.3zm0-19.5c-3.5 0-6.3 2.8-6.3 6.3s2.8 6.3 6.3 6.3 6.3-2.8 6.3-6.3c-0.1-3.5-2.9-6.3-6.3-6.3z"/>
		<circle class="st10" cx="504.7" cy="266.5" r="9.8"/>
		<path class="st16" d="m504.7 279.8c-7.3 0-13.3-5.9-13.3-13.3 0-7.3 5.9-13.2 13.3-13.2s13.2 5.9 13.2 13.2-5.9 13.3-13.2 13.3zm0-19.6c-3.5 0-6.3 2.8-6.3 6.3s2.8 6.3 6.3 6.3 6.3-2.8 6.3-6.3c0-3.4-2.9-6.3-6.3-6.3z"/>
	<path class="st4" d="m254.1 162.7h-6c-0.5 0-1-0.4-1-1 0-0.5 0.4-1 1-1h6c0.5 0 1 0.4 1 1s-0.5 1-1 1zm-13.9 0h-7.9c-0.5 0-1-0.4-1-1 0-0.5 0.4-1 1-1h7.9c0.5 0 1 0.4 1 1-0.1 0.6-0.5 1-1 1zm-15.9 0h-7.9c-0.5 0-1-0.4-1-1 0-0.5 0.4-1 1-1h7.9c0.5 0 1 0.4 1 1-0.1 0.6-0.5 1-1 1zm-15.9 0h-8c-0.5 0-1-0.4-1-1 0-0.5 0.4-1 1-1h8c0.5 0 1 0.4 1 1-0.1 0.6-0.5 1-1 1zm-15.9 0h-7.9c-0.5 0-1-0.4-1-1 0-0.5 0.4-1 1-1h7.9c0.5 0 1 0.4 1 1-0.1 0.6-0.5 1-1 1z"/>
	<circle class="st21" cx="222.8" cy="98.7" r="28.1"/>
	<path class="st7" d="m191.5 137.5c-4.9 0-8.9-4-8.9-8.9v-28.4h4v28.4c0 2.7 2.2 5 5 5s5-2.2 5-5v-36.6c0-4.9 4-8.9 8.9-8.9s8.9 4 8.9 8.9v35c0 2.7 2.2 5 5 5s5-2.2 5-5v-50.6c0-4.9 4-8.9 8.9-8.9s8.9 4 8.9 8.9v47.1c0 2.7 2.2 5 5 5s5-2.2 5-5v-27.5h4v27.5c0 4.9-4 8.9-8.9 8.9s-8.9-4-8.9-8.9v-47.1c0-2.7-2.2-5-5-5-2.7 0-5 2.2-5 5v50.7c0 4.9-4 8.9-8.9 8.9s-8.9-4-8.9-8.9v-35.1c0-2.7-2.2-5-5-5-2.7 0-5 2.2-5 5v36.5c-0.2 5-4.2 9-9.1 9z"/>
</svg>
